Your Document Title
…
uk_data <- uk_data_test

summary(uk_data_test$social_conservatism)

   Min. 1st Qu.  Median    Mean 3rd Qu.    Max.    NA's 
-1.0000  0.1000  0.4000  0.3187  0.6000  1.0000     118 

uk_data_test %>% 
  filter(is.na(social_conservatism)) %>% 
  print()

# A tibble: 118 × 31
   respondent_id    wt age      gender education ethnicity region      cons_code
   <chr>         <dbl> <chr>    <chr>  <chr>     <chr>     <chr>       <chr>    
 1 fd0288697394  0.885 25_TO_34 female low       asian     North West… E14001416
 2 fd0408935511  1.06  35_TO_44 female low       white     Scotland    S14000101
 3 fd0700150710  0.778 18_TO_24 male   low       black     South East… E14001599
 4 fd0704501787  0.916 45_TO_54 female low       white     East Midla… E14001266
 5 fd0889318795  0.958 45_TO_54 male   high      white     Greater Lo… E14001085
 6 fd1111550039  0.962 55_TO_64 female low       white     West Midla… E14001473
 7 fd1161681917  0.716 35_TO_44 female high      white     South West… E14001356
 8 fd1276995392  0.887 35_TO_44 female low       white     West Midla… E14001523
 9 fd1329112856  0.876 35_TO_44 female low       white     Yorkshire … E14001452
10 fd1536151046  0.776 55_TO_64 female high      white     Yorkshire … E14001506
# ℹ 108 more rows
# ℹ 23 more variables: cons_name <chr>, household <chr>, religion <chr>,
#   socgrad <chr>, marital <chr>, pv_2019 <chr>, pv_2024 <chr>, eu_ref <chr>,
#   exact_age <dbl>, econ_redist <dbl>, econ_bigbiz <dbl>, econ_unfair <dbl>,
#   econ_onelaw <dbl>, econ_exploit <dbl>, soc_respect <dbl>,
#   soc_deathpen <dbl>, soc_schools <dbl>, soc_censor <dbl>, soc_punish <dbl>,
#   social_conservatism <dbl>, economic_leftism <dbl>, social_na_count <int>, …
…
# Display the data
print("Vote shares by age, gender, and party:")

[1] "Vote shares by age, gender, and party:"

print(vote_shares)

# A tibble: 125 × 6
   age      gender pv_2024 weighted_count total_weighted vote_share
   <chr>    <chr>  <chr>            <dbl>          <dbl>      <dbl>
 1 18_TO_24 female con             145.            1992.      7.29 
 2 18_TO_24 female grn             253.            1992.     12.7  
 3 18_TO_24 female lab            1021.            1992.     51.3  
 4 18_TO_24 female ldm              96.8           1992.      4.86 
 5 18_TO_24 female oth              22.6           1992.      1.14 
 6 18_TO_24 female pcy               6.07          1992.      0.305
 7 18_TO_24 female rfm             180.            1992.      9.01 
 8 18_TO_24 female snp              36.6           1992.      1.84 
 9 18_TO_24 female wnv             231.            1992.     11.6  
10 18_TO_24 male   con             172.            1433.     12.0  
# ℹ 115 more rows
…
largest_gaps_by_age <- individual_gaps_by_age %>%
  filter(!is.na(gender_gap)) %>%
  group_by(age) %>%
  slice_max(abs(gender_gap), n = 4) %>%
  left_join(
    tibble(question = names(attitude_questions), 
           description = unlist(attitude_questions)), 
    by = "question"
  ) %>%
  select(age, question, description, gender_gap, p_value, significance) %>%
  arrange(age, desc(abs(gender_gap)))

print(largest_gaps_by_age)

# A tibble: 28 × 6
# Groups:   age [7]
   age      question     description             gender_gap p_value significance
   <chr>    <chr>        <chr>                        <dbl>   <dbl> <chr>       
 1 18_TO_24 soc_respect  Young people don't hav…      0.14   0      ***         
 2 18_TO_24 econ_onelaw  One law for rich, anot…     -0.117  0      ***         
 3 18_TO_24 econ_unfair  Ordinary people do not…     -0.111  0      ***         
 4 18_TO_24 soc_deathpen Death penalty is most …      0.076  0.0011 **          
 5 25_TO_34 econ_onelaw  One law for rich, anot…     -0.103  0      ***         
 6 25_TO_34 soc_respect  Young people don't hav…      0.085  0      ***         
 7 25_TO_34 soc_deathpen Death penalty is most …      0.065  0.0002 ***         
 8 25_TO_34 soc_schools  Schools should teach c…      0.062  0      ***         
 9 35_TO_44 soc_schools  Schools should teach c…      0.092  0      ***         
10 35_TO_44 soc_deathpen Death penalty is most …      0.066  0.0003 ***         
# ℹ 18 more rows
…
